\select@language {dutch}
\contentsline {section}{\numberline {1}Inleiding}{2}
\contentsline {section}{\numberline {2}Algemeen overzicht}{2}
\contentsline {section}{\numberline {3}Vragen}{2}
\contentsline {section}{\numberline {4}Oplossing van vragen}{3}
\contentsline {subsection}{\numberline {4.1}Vraag 1}{3}
\contentsline {subsection}{\numberline {4.2}Vraag 2}{4}
\contentsline {subsection}{\numberline {4.3}Vraag 3}{6}
\contentsline {subsection}{\numberline {4.4}Vraag 4}{6}
\contentsline {subsection}{\numberline {4.5}Vraag 5}{7}
\contentsline {subsection}{\numberline {4.6}Vraag 6}{7}
