\relax 
\catcode `"\active 
\select@language{dutch}
\@writefile{toc}{\select@language{dutch}}
\@writefile{lof}{\select@language{dutch}}
\@writefile{lot}{\select@language{dutch}}
\@writefile{toc}{\contentsline {section}{\numberline {1}Inleiding}{2}}
\@writefile{toc}{\contentsline {section}{\numberline {2}Algemeen overzicht}{2}}
\@writefile{toc}{\contentsline {section}{\numberline {3}Vragen}{2}}
\@writefile{toc}{\contentsline {section}{\numberline {4}Oplossing van vragen}{3}}
\@writefile{toc}{\contentsline {subsection}{\numberline {4.1}Vraag 1}{3}}
\newlabel{code1}{{1}{3}}
\@writefile{lol}{\contentsline {lstlisting}{\numberline {1}Hamming prioriteitsfunctie}{3}}
\newlabel{code2}{{2}{3}}
\@writefile{lol}{\contentsline {lstlisting}{\numberline {2}Manhattan prioriteitsfunctie}{3}}
\@writefile{toc}{\contentsline {subsection}{\numberline {4.2}Vraag 2}{4}}
\newlabel{code3}{{3}{4}}
\@writefile{lol}{\contentsline {lstlisting}{\numberline {3}isSolvable()}{4}}
\newlabel{code4}{{4}{5}}
\@writefile{lol}{\contentsline {lstlisting}{\numberline {4}setZero()}{5}}
\newlabel{code5}{{5}{5}}
\@writefile{lol}{\contentsline {lstlisting}{\numberline {5}swap()}{5}}
\newlabel{code6}{{6}{6}}
\@writefile{lol}{\contentsline {lstlisting}{\numberline {6}p()}{6}}
\@writefile{toc}{\contentsline {subsection}{\numberline {4.3}Vraag 3}{6}}
\@writefile{toc}{\contentsline {subsection}{\numberline {4.4}Vraag 4}{6}}
\@writefile{toc}{\contentsline {subsection}{\numberline {4.5}Vraag 5}{7}}
\@writefile{toc}{\contentsline {subsection}{\numberline {4.6}Vraag 6}{7}}
